<?xml version="1.0" encoding="UTF-8" standalone="no"?>
<!DOCTYPE svg PUBLIC "-//W3C//DTD SVG 1.1//EN"
 "http://www.w3.org/Graphics/SVG/1.1/DTD/svg11.dtd">
<!-- Generated by graphviz version 2.36.0 (20140111.2315)
 -->
<!-- Title: controllers_diagram Pages: 1 -->
<svg width="1776pt" height="944pt"
 viewBox="0.00 0.00 1776.01 943.66" xmlns="http://www.w3.org/2000/svg" xmlns:xlink="http://www.w3.org/1999/xlink">
<g id="graph0" class="graph" transform="scale(1 1) rotate(0) translate(4 939.66)">
<title>controllers_diagram</title>
<polygon fill="white" stroke="none" points="-4,4 -4,-939.66 1772.01,-939.66 1772.01,4 -4,4"/>
<!-- _diagram_info -->
<g id="node1" class="node"><title>_diagram_info</title>
<text text-anchor="start" x="908" y="-63.6" font-family="Times,serif" font-size="13.00">Controllers diagram</text>
<text text-anchor="start" x="908" y="-49.6" font-family="Times,serif" font-size="13.00">Date: Jul 08 2015 &#45; 14:07</text>
<text text-anchor="start" x="908" y="-35.6" font-family="Times,serif" font-size="13.00">Migration version: 20150619193344</text>
<text text-anchor="start" x="908" y="-21.6" font-family="Times,serif" font-size="13.00">Generated by RailRoady 1.3.0</text>
<text text-anchor="start" x="908" y="-7.6" font-family="Times,serif" font-size="13.00">http://railroady.prestonlee.com</text>
</g>
<!-- HomeController -->
<g id="node2" class="node"><title>HomeController</title>
<ellipse fill="none" stroke="black" cx="151.189" cy="-226.174" rx="68.7879" ry="18"/>
<text text-anchor="middle" x="151.189" y="-222.474" font-family="Times,serif" font-size="14.00">HomeController</text>
</g>
<!-- ApplicationController -->
<g id="node3" class="node"><title>ApplicationController</title>
<ellipse fill="none" stroke="black" cx="931.756" cy="-450.953" rx="88.2844" ry="18"/>
<text text-anchor="middle" x="931.756" y="-447.253" font-family="Times,serif" font-size="14.00">ApplicationController</text>
</g>
<!-- ApplicationController&#45;&gt;HomeController -->
<g id="edge1" class="edge"><title>ApplicationController&#45;&gt;HomeController</title>
<path fill="none" stroke="black" d="M883.51,-435.728C844.561,-423.523 788.306,-406.093 738.907,-391.536 538.864,-332.587 299.158,-266.574 198.916,-239.174"/>
</g>
<!-- PrizesController -->
<g id="node4" class="node"><title>PrizesController</title>
<ellipse fill="none" stroke="black" cx="703.437" cy="-168" rx="68.4888" ry="18"/>
<text text-anchor="middle" x="703.437" y="-164.3" font-family="Times,serif" font-size="14.00">PrizesController</text>
</g>
<!-- ApplicationController&#45;&gt;PrizesController -->
<g id="edge2" class="edge"><title>ApplicationController&#45;&gt;PrizesController</title>
<path fill="none" stroke="black" d="M917.126,-432.822C875.789,-381.593 758.477,-236.21 717.652,-185.616"/>
</g>
<!-- ProfilesController -->
<g id="node5" class="node"><title>ProfilesController</title>
<ellipse fill="none" stroke="black" cx="889.535" cy="-700.855" rx="74.187" ry="18"/>
<text text-anchor="middle" x="889.535" y="-697.155" font-family="Times,serif" font-size="14.00">ProfilesController</text>
</g>
<!-- ApplicationController&#45;&gt;ProfilesController -->
<g id="edge3" class="edge"><title>ApplicationController&#45;&gt;ProfilesController</title>
<path fill="none" stroke="black" d="M928.651,-469.328C920.824,-515.656 900.357,-636.798 892.587,-682.789"/>
</g>
<!-- PlacesController -->
<g id="node6" class="node"><title>PlacesController</title>
<ellipse fill="none" stroke="black" cx="1343.54" cy="-693.304" rx="69.5877" ry="18"/>
<text text-anchor="middle" x="1343.54" y="-689.604" font-family="Times,serif" font-size="14.00">PlacesController</text>
</g>
<!-- ApplicationController&#45;&gt;PlacesController -->
<g id="edge4" class="edge"><title>ApplicationController&#45;&gt;PlacesController</title>
<path fill="none" stroke="black" d="M960.712,-467.994C1036.59,-512.654 1240.52,-632.672 1315.44,-676.763"/>
</g>
<!-- BooksController -->
<g id="node7" class="node"><title>BooksController</title>
<ellipse fill="none" stroke="black" cx="786.656" cy="-553.093" rx="69.5877" ry="18"/>
<text text-anchor="middle" x="786.656" y="-549.393" font-family="Times,serif" font-size="14.00">BooksController</text>
</g>
<!-- ApplicationController&#45;&gt;BooksController -->
<g id="edge5" class="edge"><title>ApplicationController&#45;&gt;BooksController</title>
<path fill="none" stroke="black" d="M907.142,-468.279C880.298,-487.176 837.606,-517.227 810.907,-536.022"/>
</g>
<!-- ImportController -->
<g id="node8" class="node"><title>ImportController</title>
<ellipse fill="none" stroke="black" cx="467.683" cy="-214.32" rx="71.4873" ry="18"/>
<text text-anchor="middle" x="467.683" y="-210.62" font-family="Times,serif" font-size="14.00">ImportController</text>
</g>
<!-- ApplicationController&#45;&gt;ImportController -->
<g id="edge6" class="edge"><title>ApplicationController&#45;&gt;ImportController</title>
<path fill="none" stroke="black" d="M898.753,-434.124C813.025,-390.411 584.092,-273.677 499.594,-230.592"/>
</g>
<!-- PublishersController -->
<g id="node9" class="node"><title>PublishersController</title>
<ellipse fill="none" stroke="black" cx="1126.15" cy="-424.316" rx="83.3857" ry="18"/>
<text text-anchor="middle" x="1126.15" y="-420.616" font-family="Times,serif" font-size="14.00">PublishersController</text>
</g>
<!-- ApplicationController&#45;&gt;PublishersController -->
<g id="edge7" class="edge"><title>ApplicationController&#45;&gt;PublishersController</title>
<path fill="none" stroke="black" d="M1005.25,-440.882C1021.81,-438.614 1039.34,-436.211 1055.77,-433.96"/>
</g>
<!-- CategoriesController -->
<g id="node10" class="node"><title>CategoriesController</title>
<ellipse fill="none" stroke="black" cx="677.461" cy="-405.264" rx="84.485" ry="18"/>
<text text-anchor="middle" x="677.461" y="-401.564" font-family="Times,serif" font-size="14.00">CategoriesController</text>
</g>
<!-- ApplicationController&#45;&gt;CategoriesController -->
<g id="edge8" class="edge"><title>ApplicationController&#45;&gt;CategoriesController</title>
<path fill="none" stroke="black" d="M865.275,-439.008C827.308,-432.187 779.915,-423.672 742.236,-416.902"/>
</g>
<!-- ShelvesController -->
<g id="node11" class="node"><title>ShelvesController</title>
<ellipse fill="none" stroke="black" cx="1095.08" cy="-177.773" rx="74.187" ry="18"/>
<text text-anchor="middle" x="1095.08" y="-174.073" font-family="Times,serif" font-size="14.00">ShelvesController</text>
</g>
<!-- ApplicationController&#45;&gt;ShelvesController -->
<g id="edge9" class="edge"><title>ApplicationController&#45;&gt;ShelvesController</title>
<path fill="none" stroke="black" d="M942.472,-433.028C972.067,-383.53 1054.69,-245.34 1084.33,-195.763"/>
</g>
<!-- AwardsController -->
<g id="node12" class="node"><title>AwardsController</title>
<ellipse fill="none" stroke="black" cx="899.974" cy="-209.06" rx="74.187" ry="18"/>
<text text-anchor="middle" x="899.974" y="-205.36" font-family="Times,serif" font-size="14.00">AwardsController</text>
</g>
<!-- ApplicationController&#45;&gt;AwardsController -->
<g id="edge10" class="edge"><title>ApplicationController&#45;&gt;AwardsController</title>
<path fill="none" stroke="black" d="M929.367,-432.771C923.463,-387.833 908.235,-271.935 902.347,-227.122"/>
</g>
<!-- AuthorsController -->
<g id="node13" class="node"><title>AuthorsController</title>
<ellipse fill="none" stroke="black" cx="452.351" cy="-528.46" rx="75.2868" ry="18"/>
<text text-anchor="middle" x="452.351" y="-524.76" font-family="Times,serif" font-size="14.00">AuthorsController</text>
</g>
<!-- ApplicationController&#45;&gt;AuthorsController -->
<g id="edge11" class="edge"><title>ApplicationController&#45;&gt;AuthorsController</title>
<path fill="none" stroke="black" d="M862.302,-462.181C769.013,-477.264 604.619,-503.842 514.964,-518.337"/>
</g>
<!-- ContributionsController -->
<g id="node14" class="node"><title>ContributionsController</title>
<ellipse fill="none" stroke="black" cx="1100.57" cy="-653.32" rx="94.7833" ry="18"/>
<text text-anchor="middle" x="1100.57" y="-649.62" font-family="Times,serif" font-size="14.00">ContributionsController</text>
</g>
<!-- ApplicationController&#45;&gt;ContributionsController -->
<g id="edge12" class="edge"><title>ApplicationController&#45;&gt;ContributionsController</title>
<path fill="none" stroke="black" d="M946.737,-468.911C978.773,-507.314 1053.62,-597.035 1085.63,-635.402"/>
</g>
<!-- Api::V1::BaseController -->
<g id="node19" class="node"><title>Api::V1::BaseController</title>
<ellipse fill="none" stroke="black" cx="1349.84" cy="-460.935" rx="97.4827" ry="18"/>
<text text-anchor="middle" x="1349.84" y="-457.235" font-family="Times,serif" font-size="14.00">Api::V1::BaseController</text>
</g>
<!-- ApplicationController&#45;&gt;Api::V1::BaseController -->
<g id="edge17" class="edge"><title>ApplicationController&#45;&gt;Api::V1::BaseController</title>
<path fill="none" stroke="black" d="M1019.66,-453.051C1087.92,-454.681 1182.49,-456.939 1252.94,-458.621"/>
</g>
<!-- DeviseController -->
<g id="node20" class="node"><title>DeviseController</title>
<ellipse fill="none" stroke="black" cx="640.131" cy="-674.965" rx="71.4873" ry="18"/>
<text text-anchor="middle" x="640.131" y="-671.265" font-family="Times,serif" font-size="14.00">DeviseController</text>
</g>
<!-- ApplicationController&#45;&gt;DeviseController -->
<g id="edge18" class="edge"><title>ApplicationController&#45;&gt;DeviseController</title>
<path fill="none" stroke="black" d="M921.446,-469.111C908.514,-490.835 884.741,-527.488 857.799,-553.204 804.864,-603.729 726.959,-640.61 680.121,-659.841"/>
</g>
<!-- Api::V1::BooksController -->
<g id="node15" class="node"><title>Api::V1::BooksController</title>
<ellipse fill="none" stroke="black" cx="1660.66" cy="-564.211" rx="102.882" ry="18"/>
<text text-anchor="middle" x="1660.66" y="-560.511" font-family="Times,serif" font-size="14.00">Api::V1::BooksController</text>
</g>
<!-- Api::V1::PublishersController -->
<g id="node16" class="node"><title>Api::V1::PublishersController</title>
<ellipse fill="none" stroke="black" cx="1626.46" cy="-885.517" rx="116.979" ry="18"/>
<text text-anchor="middle" x="1626.46" y="-881.817" font-family="Times,serif" font-size="14.00">Api::V1::PublishersController</text>
</g>
<!-- Api::V1::CategoriesController -->
<g id="node17" class="node"><title>Api::V1::CategoriesController</title>
<ellipse fill="none" stroke="black" cx="1649.72" cy="-228.979" rx="118.079" ry="18"/>
<text text-anchor="middle" x="1649.72" y="-225.279" font-family="Times,serif" font-size="14.00">Api::V1::CategoriesController</text>
</g>
<!-- Api::V1::AuthorsController -->
<g id="node18" class="node"><title>Api::V1::AuthorsController</title>
<ellipse fill="none" stroke="black" cx="1330.32" cy="-192.931" rx="108.581" ry="18"/>
<text text-anchor="middle" x="1330.32" y="-189.231" font-family="Times,serif" font-size="14.00">Api::V1::AuthorsController</text>
</g>
<!-- Api::V1::BaseController&#45;&gt;Api::V1::BooksController -->
<g id="edge13" class="edge"><title>Api::V1::BaseController&#45;&gt;Api::V1::BooksController</title>
<path fill="none" stroke="black" d="M1397.39,-476.733C1455.72,-496.114 1554.05,-528.788 1612.61,-548.246"/>
</g>
<!-- Api::V1::BaseController&#45;&gt;Api::V1::PublishersController -->
<g id="edge14" class="edge"><title>Api::V1::BaseController&#45;&gt;Api::V1::PublishersController</title>
<path fill="none" stroke="black" d="M1361.55,-478.908C1406.7,-548.199 1569.18,-797.594 1614.6,-867.302"/>
</g>
<!-- Api::V1::BaseController&#45;&gt;Api::V1::CategoriesController -->
<g id="edge15" class="edge"><title>Api::V1::BaseController&#45;&gt;Api::V1::CategoriesController</title>
<path fill="none" stroke="black" d="M1372.88,-443.119C1428.69,-399.943 1570.71,-290.095 1626.61,-246.856"/>
</g>
<!-- Api::V1::BaseController&#45;&gt;Api::V1::AuthorsController -->
<g id="edge16" class="edge"><title>Api::V1::BaseController&#45;&gt;Api::V1::AuthorsController</title>
<path fill="none" stroke="black" d="M1348.53,-442.935C1344.98,-394.229 1335.23,-260.231 1331.66,-211.206"/>
</g>
<!-- Devise::UnlocksController -->
<g id="node21" class="node"><title>Devise::UnlocksController</title>
<ellipse fill="none" stroke="black" cx="151.162" cy="-871.388" rx="105.082" ry="18"/>
<text text-anchor="middle" x="151.162" y="-867.688" font-family="Times,serif" font-size="14.00">Devise::UnlocksController</text>
</g>
<!-- DeviseController&#45;&gt;Devise::UnlocksController -->
<g id="edge19" class="edge"><title>DeviseController&#45;&gt;Devise::UnlocksController</title>
<path fill="none" stroke="black" d="M601.763,-690.378C511.371,-726.689 285.655,-817.361 192.437,-854.807"/>
</g>
<!-- Devise::ConfirmationsController -->
<g id="node22" class="node"><title>Devise::ConfirmationsController</title>
<ellipse fill="none" stroke="black" cx="726.857" cy="-916.23" rx="127.277" ry="18"/>
<text text-anchor="middle" x="726.857" y="-912.53" font-family="Times,serif" font-size="14.00">Devise::ConfirmationsController</text>
</g>
<!-- DeviseController&#45;&gt;Devise::ConfirmationsController -->
<g id="edge20" class="edge"><title>DeviseController&#45;&gt;Devise::ConfirmationsController</title>
<path fill="none" stroke="black" d="M646.65,-693.099C662.762,-737.92 704.315,-853.518 720.381,-898.214"/>
</g>
<!-- Devise::OmniauthCallbacksController -->
<g id="node23" class="node"><title>Devise::OmniauthCallbacksController</title>
<ellipse fill="none" stroke="black" cx="146.237" cy="-551.964" rx="146.474" ry="18"/>
<text text-anchor="middle" x="146.237" y="-548.264" font-family="Times,serif" font-size="14.00">Devise::OmniauthCallbacksController</text>
</g>
<!-- DeviseController&#45;&gt;Devise::OmniauthCallbacksController -->
<g id="edge21" class="edge"><title>DeviseController&#45;&gt;Devise::OmniauthCallbacksController</title>
<path fill="none" stroke="black" d="M589.136,-662.265C498.807,-639.769 310.856,-592.962 211.327,-568.175"/>
</g>
<!-- Devise::PasswordsController -->
<g id="node24" class="node"><title>Devise::PasswordsController</title>
<ellipse fill="none" stroke="black" cx="980.199" cy="-913.564" rx="113.18" ry="18"/>
<text text-anchor="middle" x="980.199" y="-909.864" font-family="Times,serif" font-size="14.00">Devise::PasswordsController</text>
</g>
<!-- DeviseController&#45;&gt;Devise::PasswordsController -->
<g id="edge22" class="edge"><title>DeviseController&#45;&gt;Devise::PasswordsController</title>
<path fill="none" stroke="black" d="M664.316,-691.933C726.529,-735.584 891.664,-851.446 954.991,-895.878"/>
</g>
<!-- Devise::SessionsController -->
<g id="node25" class="node"><title>Devise::SessionsController</title>
<ellipse fill="none" stroke="black" cx="1244.37" cy="-917.66" rx="106.681" ry="18"/>
<text text-anchor="middle" x="1244.37" y="-913.96" font-family="Times,serif" font-size="14.00">Devise::SessionsController</text>
</g>
<!-- DeviseController&#45;&gt;Devise::SessionsController -->
<g id="edge23" class="edge"><title>DeviseController&#45;&gt;Devise::SessionsController</title>
<path fill="none" stroke="black" d="M678.388,-690.331C786.048,-733.573 1091.02,-856.068 1202.72,-900.93"/>
</g>
<!-- Devise::RegistrationsController -->
<g id="node26" class="node"><title>Devise::RegistrationsController</title>
<ellipse fill="none" stroke="black" cx="467.912" cy="-873.869" rx="122.379" ry="18"/>
<text text-anchor="middle" x="467.912" y="-870.169" font-family="Times,serif" font-size="14.00">Devise::RegistrationsController</text>
</g>
<!-- DeviseController&#45;&gt;Devise::RegistrationsController -->
<g id="edge24" class="edge"><title>DeviseController&#45;&gt;Devise::RegistrationsController</title>
<path fill="none" stroke="black" d="M624.848,-692.616C592.249,-730.267 516.196,-818.103 483.409,-855.971"/>
</g>
<!-- ImpressionistController -->
<g id="node27" class="node"><title>ImpressionistController</title>
<ellipse fill="none" stroke="black" cx="1294.89" cy="-93" rx="94.7833" ry="18"/>
<text text-anchor="middle" x="1294.89" y="-89.3" font-family="Times,serif" font-size="14.00">ImpressionistController</text>
</g>
</g>
</svg>
