<?xml version="1.0" encoding="UTF-8" standalone="no"?>
<!DOCTYPE svg PUBLIC "-//W3C//DTD SVG 1.1//EN"
 "http://www.w3.org/Graphics/SVG/1.1/DTD/svg11.dtd">
<!-- Generated by graphviz version 2.36.0 (20140111.2315)
 -->
<!-- Title: models_diagram Pages: 1 -->
<svg width="1563pt" height="1504pt"
 viewBox="0.00 0.00 1563.00 1504.00" xmlns="http://www.w3.org/2000/svg" xmlns:xlink="http://www.w3.org/1999/xlink">
<g id="graph0" class="graph" transform="scale(1 1) rotate(0) translate(4 1500)">
<title>models_diagram</title>
<polygon fill="white" stroke="none" points="-4,4 -4,-1500 1559,-1500 1559,4 -4,4"/>
<!-- _diagram_info -->
<g id="node1" class="node"><title>_diagram_info</title>
<text text-anchor="start" x="811" y="-1481.6" font-family="Times,serif" font-size="13.00">Models diagram</text>
<text text-anchor="start" x="811" y="-1467.6" font-family="Times,serif" font-size="13.00">Date: Jul 08 2015 &#45; 14:07</text>
<text text-anchor="start" x="811" y="-1453.6" font-family="Times,serif" font-size="13.00">Migration version: 20150619193344</text>
<text text-anchor="start" x="811" y="-1439.6" font-family="Times,serif" font-size="13.00">Generated by RailRoady 1.3.0</text>
<text text-anchor="start" x="811" y="-1425.6" font-family="Times,serif" font-size="13.00">http://railroady.prestonlee.com</text>
</g>
<!-- Profile -->
<g id="node2" class="node"><title>Profile</title>
<path fill="none" stroke="black" d="M116.5,-671.5C116.5,-671.5 285.5,-671.5 285.5,-671.5 291.5,-671.5 297.5,-677.5 297.5,-683.5 297.5,-683.5 297.5,-960.5 297.5,-960.5 297.5,-966.5 291.5,-972.5 285.5,-972.5 285.5,-972.5 116.5,-972.5 116.5,-972.5 110.5,-972.5 104.5,-966.5 104.5,-960.5 104.5,-960.5 104.5,-683.5 104.5,-683.5 104.5,-677.5 110.5,-671.5 116.5,-671.5"/>
<text text-anchor="middle" x="201" y="-957.3" font-family="Times,serif" font-size="14.00">Profile</text>
<polyline fill="none" stroke="black" points="104.5,-949.5 297.5,-949.5 "/>
<text text-anchor="start" x="112.5" y="-934.3" font-family="Times,serif" font-size="14.00">id :integer</text>
<text text-anchor="start" x="112.5" y="-919.3" font-family="Times,serif" font-size="14.00">username :string</text>
<text text-anchor="start" x="112.5" y="-904.3" font-family="Times,serif" font-size="14.00">name :string</text>
<text text-anchor="start" x="112.5" y="-889.3" font-family="Times,serif" font-size="14.00">avatar :string</text>
<text text-anchor="start" x="112.5" y="-874.3" font-family="Times,serif" font-size="14.00">cover :string</text>
<text text-anchor="start" x="112.5" y="-859.3" font-family="Times,serif" font-size="14.00">about_me :text</text>
<text text-anchor="start" x="112.5" y="-844.3" font-family="Times,serif" font-size="14.00">about_library :text</text>
<text text-anchor="start" x="112.5" y="-829.3" font-family="Times,serif" font-size="14.00">account_type :integer</text>
<text text-anchor="start" x="112.5" y="-814.3" font-family="Times,serif" font-size="14.00">privacy :integer</text>
<text text-anchor="start" x="112.5" y="-799.3" font-family="Times,serif" font-size="14.00">language :integer</text>
<text text-anchor="start" x="112.5" y="-784.3" font-family="Times,serif" font-size="14.00">allow_comments :boolean</text>
<text text-anchor="start" x="112.5" y="-769.3" font-family="Times,serif" font-size="14.00">allow_friends :boolean</text>
<text text-anchor="start" x="112.5" y="-754.3" font-family="Times,serif" font-size="14.00">email_privacy :integer</text>
<text text-anchor="start" x="112.5" y="-739.3" font-family="Times,serif" font-size="14.00">discoverable_by_email :boolean</text>
<text text-anchor="start" x="112.5" y="-724.3" font-family="Times,serif" font-size="14.00">receive_newsletters :boolean</text>
<text text-anchor="start" x="112.5" y="-709.3" font-family="Times,serif" font-size="14.00">user_id :integer</text>
<text text-anchor="start" x="112.5" y="-694.3" font-family="Times,serif" font-size="14.00">created_at :datetime</text>
<text text-anchor="start" x="112.5" y="-679.3" font-family="Times,serif" font-size="14.00">updated_at :datetime</text>
</g>
<!-- Award -->
<g id="node3" class="node"><title>Award</title>
<path fill="none" stroke="black" d="M1152,-53C1152,-53 1268,-53 1268,-53 1274,-53 1280,-59 1280,-65 1280,-65 1280,-177 1280,-177 1280,-183 1274,-189 1268,-189 1268,-189 1152,-189 1152,-189 1146,-189 1140,-183 1140,-177 1140,-177 1140,-65 1140,-65 1140,-59 1146,-53 1152,-53"/>
<text text-anchor="middle" x="1210" y="-173.8" font-family="Times,serif" font-size="14.00">Award</text>
<polyline fill="none" stroke="black" points="1140,-166 1280,-166 "/>
<text text-anchor="start" x="1148" y="-150.8" font-family="Times,serif" font-size="14.00">id :integer</text>
<text text-anchor="start" x="1148" y="-135.8" font-family="Times,serif" font-size="14.00">prize_id :integer</text>
<text text-anchor="start" x="1148" y="-120.8" font-family="Times,serif" font-size="14.00">year :integer</text>
<text text-anchor="start" x="1148" y="-105.8" font-family="Times,serif" font-size="14.00">awardable_id :integer</text>
<text text-anchor="start" x="1148" y="-90.8" font-family="Times,serif" font-size="14.00">awardable_type :string</text>
<text text-anchor="start" x="1148" y="-75.8" font-family="Times,serif" font-size="14.00">created_at :datetime</text>
<text text-anchor="start" x="1148" y="-60.8" font-family="Times,serif" font-size="14.00">updated_at :datetime</text>
</g>
<!-- Follow -->
<g id="node4" class="node"><title>Follow</title>
<path fill="none" stroke="black" d="M531.5,-746.5C531.5,-746.5 650.5,-746.5 650.5,-746.5 656.5,-746.5 662.5,-752.5 662.5,-758.5 662.5,-758.5 662.5,-885.5 662.5,-885.5 662.5,-891.5 656.5,-897.5 650.5,-897.5 650.5,-897.5 531.5,-897.5 531.5,-897.5 525.5,-897.5 519.5,-891.5 519.5,-885.5 519.5,-885.5 519.5,-758.5 519.5,-758.5 519.5,-752.5 525.5,-746.5 531.5,-746.5"/>
<text text-anchor="middle" x="591" y="-882.3" font-family="Times,serif" font-size="14.00">Follow</text>
<polyline fill="none" stroke="black" points="519.5,-874.5 662.5,-874.5 "/>
<text text-anchor="start" x="527.5" y="-859.3" font-family="Times,serif" font-size="14.00">id :integer</text>
<text text-anchor="start" x="527.5" y="-844.3" font-family="Times,serif" font-size="14.00">followable_id :integer</text>
<text text-anchor="start" x="527.5" y="-829.3" font-family="Times,serif" font-size="14.00">followable_type :string</text>
<text text-anchor="start" x="527.5" y="-814.3" font-family="Times,serif" font-size="14.00">follower_id :integer</text>
<text text-anchor="start" x="527.5" y="-799.3" font-family="Times,serif" font-size="14.00">follower_type :string</text>
<text text-anchor="start" x="527.5" y="-784.3" font-family="Times,serif" font-size="14.00">blocked :boolean</text>
<text text-anchor="start" x="527.5" y="-769.3" font-family="Times,serif" font-size="14.00">created_at :datetime</text>
<text text-anchor="start" x="527.5" y="-754.3" font-family="Times,serif" font-size="14.00">updated_at :datetime</text>
</g>
<!-- Category -->
<g id="node5" class="node"><title>Category</title>
<path fill="none" stroke="black" d="M873,-1161C873,-1161 1013,-1161 1013,-1161 1019,-1161 1025,-1167 1025,-1173 1025,-1173 1025,-1345 1025,-1345 1025,-1351 1019,-1357 1013,-1357 1013,-1357 873,-1357 873,-1357 867,-1357 861,-1351 861,-1345 861,-1345 861,-1173 861,-1173 861,-1167 867,-1161 873,-1161"/>
<text text-anchor="middle" x="943" y="-1341.8" font-family="Times,serif" font-size="14.00">Category</text>
<polyline fill="none" stroke="black" points="861,-1334 1025,-1334 "/>
<text text-anchor="start" x="869" y="-1318.8" font-family="Times,serif" font-size="14.00">id :integer</text>
<text text-anchor="start" x="869" y="-1303.8" font-family="Times,serif" font-size="14.00">name :string</text>
<text text-anchor="start" x="869" y="-1288.8" font-family="Times,serif" font-size="14.00">ddc :string</text>
<text text-anchor="start" x="869" y="-1273.8" font-family="Times,serif" font-size="14.00">slug :string</text>
<text text-anchor="start" x="869" y="-1258.8" font-family="Times,serif" font-size="14.00">biblionet_id :integer</text>
<text text-anchor="start" x="869" y="-1243.8" font-family="Times,serif" font-size="14.00">parent_id :integer</text>
<text text-anchor="start" x="869" y="-1228.8" font-family="Times,serif" font-size="14.00">created_at :datetime</text>
<text text-anchor="start" x="869" y="-1213.8" font-family="Times,serif" font-size="14.00">updated_at :datetime</text>
<text text-anchor="start" x="869" y="-1198.8" font-family="Times,serif" font-size="14.00">impressions_count :integer</text>
<text text-anchor="start" x="869" y="-1183.8" font-family="Times,serif" font-size="14.00">featured :boolean</text>
<text text-anchor="start" x="869" y="-1168.8" font-family="Times,serif" font-size="14.00">tsearch_vector :tsvector</text>
</g>
<!-- Category&#45;&gt;Category -->
<g id="edge4" class="edge"><title>Category&#45;&gt;Category</title>
<path fill="none" stroke="#124890" d="M1032.61,-1278.32C1039.06,-1273.95 1043,-1267.51 1043,-1259 1043,-1251.2 1039.69,-1245.14 1034.17,-1240.81"/>
<ellipse fill="none" stroke="#124890" cx="1028.95" cy="-1280.19" rx="4.00002" ry="4.00002"/>
<polygon fill="#124890" stroke="#124890" points="1034.15,-1240.8 1027.55,-1232.05 1029.77,-1238.4 1025.38,-1235.99 1025.38,-1235.99 1025.38,-1235.99 1029.77,-1238.4 1023.22,-1239.94 1034.15,-1240.8 1034.15,-1240.8"/>
<text text-anchor="middle" x="1065.5" y="-1255.3" font-family="Times,serif" font-size="14.00">children</text>
</g>
<!-- Book -->
<g id="node10" class="node"><title>Book</title>
<path fill="none" stroke="black" d="M934.5,-559C934.5,-559 1079.5,-559 1079.5,-559 1085.5,-559 1091.5,-565 1091.5,-571 1091.5,-571 1091.5,-1073 1091.5,-1073 1091.5,-1079 1085.5,-1085 1079.5,-1085 1079.5,-1085 934.5,-1085 934.5,-1085 928.5,-1085 922.5,-1079 922.5,-1073 922.5,-1073 922.5,-571 922.5,-571 922.5,-565 928.5,-559 934.5,-559"/>
<text text-anchor="middle" x="1007" y="-1069.8" font-family="Times,serif" font-size="14.00">Book</text>
<polyline fill="none" stroke="black" points="922.5,-1062 1091.5,-1062 "/>
<text text-anchor="start" x="930.5" y="-1046.8" font-family="Times,serif" font-size="14.00">id :integer</text>
<text text-anchor="start" x="930.5" y="-1031.8" font-family="Times,serif" font-size="14.00">title :string</text>
<text text-anchor="start" x="930.5" y="-1016.8" font-family="Times,serif" font-size="14.00">subtitle :string</text>
<text text-anchor="start" x="930.5" y="-1001.8" font-family="Times,serif" font-size="14.00">description :text</text>
<text text-anchor="start" x="930.5" y="-986.8" font-family="Times,serif" font-size="14.00">image :string</text>
<text text-anchor="start" x="930.5" y="-971.8" font-family="Times,serif" font-size="14.00">isbn :string</text>
<text text-anchor="start" x="930.5" y="-956.8" font-family="Times,serif" font-size="14.00">isbn13 :string</text>
<text text-anchor="start" x="930.5" y="-941.8" font-family="Times,serif" font-size="14.00">ismn :string</text>
<text text-anchor="start" x="930.5" y="-926.8" font-family="Times,serif" font-size="14.00">issn :string</text>
<text text-anchor="start" x="930.5" y="-911.8" font-family="Times,serif" font-size="14.00">series_name :string</text>
<text text-anchor="start" x="930.5" y="-896.8" font-family="Times,serif" font-size="14.00">pages :integer</text>
<text text-anchor="start" x="930.5" y="-881.8" font-family="Times,serif" font-size="14.00">publication_year :integer</text>
<text text-anchor="start" x="930.5" y="-866.8" font-family="Times,serif" font-size="14.00">publication_place :string</text>
<text text-anchor="start" x="930.5" y="-851.8" font-family="Times,serif" font-size="14.00">price :decimal</text>
<text text-anchor="start" x="930.5" y="-836.8" font-family="Times,serif" font-size="14.00">price_updated_at :date</text>
<text text-anchor="start" x="930.5" y="-821.8" font-family="Times,serif" font-size="14.00">size :string</text>
<text text-anchor="start" x="930.5" y="-806.8" font-family="Times,serif" font-size="14.00">cover_type :integer</text>
<text text-anchor="start" x="930.5" y="-791.8" font-family="Times,serif" font-size="14.00">availability :integer</text>
<text text-anchor="start" x="930.5" y="-776.8" font-family="Times,serif" font-size="14.00">format :integer</text>
<text text-anchor="start" x="930.5" y="-761.8" font-family="Times,serif" font-size="14.00">original_language :integer</text>
<text text-anchor="start" x="930.5" y="-746.8" font-family="Times,serif" font-size="14.00">original_title :string</text>
<text text-anchor="start" x="930.5" y="-731.8" font-family="Times,serif" font-size="14.00">publisher_id :integer</text>
<text text-anchor="start" x="930.5" y="-716.8" font-family="Times,serif" font-size="14.00">extra :string</text>
<text text-anchor="start" x="930.5" y="-701.8" font-family="Times,serif" font-size="14.00">biblionet_id :integer</text>
<text text-anchor="start" x="930.5" y="-686.8" font-family="Times,serif" font-size="14.00">created_at :datetime</text>
<text text-anchor="start" x="930.5" y="-671.8" font-family="Times,serif" font-size="14.00">updated_at :datetime</text>
<text text-anchor="start" x="930.5" y="-656.8" font-family="Times,serif" font-size="14.00">collective_work :boolean</text>
<text text-anchor="start" x="930.5" y="-641.8" font-family="Times,serif" font-size="14.00">series_volume :integer</text>
<text text-anchor="start" x="930.5" y="-626.8" font-family="Times,serif" font-size="14.00">publication_version :integer</text>
<text text-anchor="start" x="930.5" y="-611.8" font-family="Times,serif" font-size="14.00">impressions_count :integer</text>
<text text-anchor="start" x="930.5" y="-596.8" font-family="Times,serif" font-size="14.00">slug :string</text>
<text text-anchor="start" x="930.5" y="-581.8" font-family="Times,serif" font-size="14.00">language :integer</text>
<text text-anchor="start" x="930.5" y="-566.8" font-family="Times,serif" font-size="14.00">tsearch_vector :tsvector</text>
</g>
<!-- Category&#45;&gt;Book -->
<g id="edge5" class="edge"><title>Category&#45;&gt;Book</title>
<path fill="none" stroke="#a48bf9" d="M958.743,-1150.99C961.326,-1133.44 964.101,-1114.58 966.968,-1095.1"/>
<polygon fill="#a48bf9" stroke="#a48bf9" points="958.739,-1151.03 952.831,-1160.26 958.011,-1155.97 957.283,-1160.92 957.283,-1160.92 957.283,-1160.92 958.011,-1155.97 961.735,-1161.57 958.739,-1151.03 958.739,-1151.03"/>
<polygon fill="#a48bf9" stroke="#a48bf9" points="966.972,-1095.06 972.88,-1085.82 967.7,-1090.12 968.428,-1085.17 968.428,-1085.17 968.428,-1085.17 967.7,-1090.12 963.976,-1084.51 966.972,-1095.06 966.972,-1095.06"/>
</g>
<!-- Contribution -->
<g id="node6" class="node"><title>Contribution</title>
<path fill="none" stroke="black" d="M797.5,-60.5C797.5,-60.5 904.5,-60.5 904.5,-60.5 910.5,-60.5 916.5,-66.5 916.5,-72.5 916.5,-72.5 916.5,-169.5 916.5,-169.5 916.5,-175.5 910.5,-181.5 904.5,-181.5 904.5,-181.5 797.5,-181.5 797.5,-181.5 791.5,-181.5 785.5,-175.5 785.5,-169.5 785.5,-169.5 785.5,-72.5 785.5,-72.5 785.5,-66.5 791.5,-60.5 797.5,-60.5"/>
<text text-anchor="middle" x="851" y="-166.3" font-family="Times,serif" font-size="14.00">Contribution</text>
<polyline fill="none" stroke="black" points="785.5,-158.5 916.5,-158.5 "/>
<text text-anchor="start" x="793.5" y="-143.3" font-family="Times,serif" font-size="14.00">id :integer</text>
<text text-anchor="start" x="793.5" y="-128.3" font-family="Times,serif" font-size="14.00">job :integer</text>
<text text-anchor="start" x="793.5" y="-113.3" font-family="Times,serif" font-size="14.00">book_id :integer</text>
<text text-anchor="start" x="793.5" y="-98.3" font-family="Times,serif" font-size="14.00">author_id :integer</text>
<text text-anchor="start" x="793.5" y="-83.3" font-family="Times,serif" font-size="14.00">created_at :datetime</text>
<text text-anchor="start" x="793.5" y="-68.3" font-family="Times,serif" font-size="14.00">updated_at :datetime</text>
</g>
<!-- Publisher -->
<g id="node7" class="node"><title>Publisher</title>
<path fill="none" stroke="black" d="M1291,-1176C1291,-1176 1431,-1176 1431,-1176 1437,-1176 1443,-1182 1443,-1188 1443,-1188 1443,-1330 1443,-1330 1443,-1336 1437,-1342 1431,-1342 1431,-1342 1291,-1342 1291,-1342 1285,-1342 1279,-1336 1279,-1330 1279,-1330 1279,-1188 1279,-1188 1279,-1182 1285,-1176 1291,-1176"/>
<text text-anchor="middle" x="1361" y="-1326.8" font-family="Times,serif" font-size="14.00">Publisher</text>
<polyline fill="none" stroke="black" points="1279,-1319 1443,-1319 "/>
<text text-anchor="start" x="1287" y="-1303.8" font-family="Times,serif" font-size="14.00">id :integer</text>
<text text-anchor="start" x="1287" y="-1288.8" font-family="Times,serif" font-size="14.00">name :string</text>
<text text-anchor="start" x="1287" y="-1273.8" font-family="Times,serif" font-size="14.00">owner :string</text>
<text text-anchor="start" x="1287" y="-1258.8" font-family="Times,serif" font-size="14.00">created_at :datetime</text>
<text text-anchor="start" x="1287" y="-1243.8" font-family="Times,serif" font-size="14.00">updated_at :datetime</text>
<text text-anchor="start" x="1287" y="-1228.8" font-family="Times,serif" font-size="14.00">biblionet_id :integer</text>
<text text-anchor="start" x="1287" y="-1213.8" font-family="Times,serif" font-size="14.00">impressions_count :integer</text>
<text text-anchor="start" x="1287" y="-1198.8" font-family="Times,serif" font-size="14.00">slug :string</text>
<text text-anchor="start" x="1287" y="-1183.8" font-family="Times,serif" font-size="14.00">tsearch_vector :tsvector</text>
</g>
<!-- Impression -->
<g id="node8" class="node"><title>Impression</title>
<path fill="none" stroke="black" d="M1389.5,-0.5C1389.5,-0.5 1532.5,-0.5 1532.5,-0.5 1538.5,-0.5 1544.5,-6.5 1544.5,-12.5 1544.5,-12.5 1544.5,-229.5 1544.5,-229.5 1544.5,-235.5 1538.5,-241.5 1532.5,-241.5 1532.5,-241.5 1389.5,-241.5 1389.5,-241.5 1383.5,-241.5 1377.5,-235.5 1377.5,-229.5 1377.5,-229.5 1377.5,-12.5 1377.5,-12.5 1377.5,-6.5 1383.5,-0.5 1389.5,-0.5"/>
<text text-anchor="middle" x="1461" y="-226.3" font-family="Times,serif" font-size="14.00">Impression</text>
<polyline fill="none" stroke="black" points="1377.5,-218.5 1544.5,-218.5 "/>
<text text-anchor="start" x="1385.5" y="-203.3" font-family="Times,serif" font-size="14.00">id :integer</text>
<text text-anchor="start" x="1385.5" y="-188.3" font-family="Times,serif" font-size="14.00">impressionable_type :string</text>
<text text-anchor="start" x="1385.5" y="-173.3" font-family="Times,serif" font-size="14.00">impressionable_id :integer</text>
<text text-anchor="start" x="1385.5" y="-158.3" font-family="Times,serif" font-size="14.00">user_id :integer</text>
<text text-anchor="start" x="1385.5" y="-143.3" font-family="Times,serif" font-size="14.00">controller_name :string</text>
<text text-anchor="start" x="1385.5" y="-128.3" font-family="Times,serif" font-size="14.00">action_name :string</text>
<text text-anchor="start" x="1385.5" y="-113.3" font-family="Times,serif" font-size="14.00">view_name :string</text>
<text text-anchor="start" x="1385.5" y="-98.3" font-family="Times,serif" font-size="14.00">request_hash :string</text>
<text text-anchor="start" x="1385.5" y="-83.3" font-family="Times,serif" font-size="14.00">ip_address :string</text>
<text text-anchor="start" x="1385.5" y="-68.3" font-family="Times,serif" font-size="14.00">session_hash :string</text>
<text text-anchor="start" x="1385.5" y="-53.3" font-family="Times,serif" font-size="14.00">message :text</text>
<text text-anchor="start" x="1385.5" y="-38.3" font-family="Times,serif" font-size="14.00">referrer :text</text>
<text text-anchor="start" x="1385.5" y="-23.3" font-family="Times,serif" font-size="14.00">created_at :datetime</text>
<text text-anchor="start" x="1385.5" y="-8.3" font-family="Times,serif" font-size="14.00">updated_at :datetime</text>
</g>
<!-- Publisher&#45;&gt;Impression -->
<g id="edge10" class="edge"><title>Publisher&#45;&gt;Impression</title>
<path fill="none" stroke="#f37c70" d="M1411.96,-1168.17C1424.15,-1142.43 1435.5,-1113.79 1442,-1086 1478.16,-931.498 1471.18,-477.134 1465.13,-251.782"/>
<ellipse fill="none" stroke="#f37c70" cx="1410.07" cy="-1172.1" rx="4.00002" ry="4.00002"/>
<polygon fill="#f37c70" stroke="#f37c70" points="1465.12,-251.552 1469.35,-241.433 1464.99,-246.554 1464.85,-241.556 1464.85,-241.556 1464.85,-241.556 1464.99,-246.554 1460.35,-241.678 1465.12,-251.552 1465.12,-251.552"/>
</g>
<!-- Publisher&#45;&gt;Book -->
<g id="edge9" class="edge"><title>Publisher&#45;&gt;Book</title>
<path fill="none" stroke="#3b1db4" d="M1272.21,-1202.99C1228.16,-1172.5 1176.49,-1131.57 1139,-1086 1123.74,-1067.45 1109.63,-1046.84 1096.77,-1025.55"/>
<ellipse fill="none" stroke="#3b1db4" cx="1275.64" cy="-1205.34" rx="4.00002" ry="4.00002"/>
<polygon fill="#3b1db4" stroke="#3b1db4" points="1096.63,-1025.32 1095.39,-1014.42 1094.07,-1021.02 1091.52,-1016.72 1091.52,-1016.72 1091.52,-1016.72 1094.07,-1021.02 1087.65,-1019.02 1096.63,-1025.32 1096.63,-1025.32"/>
</g>
<!-- Place -->
<g id="node11" class="node"><title>Place</title>
<path fill="none" stroke="black" d="M1309,-701.5C1309,-701.5 1421,-701.5 1421,-701.5 1427,-701.5 1433,-707.5 1433,-713.5 1433,-713.5 1433,-930.5 1433,-930.5 1433,-936.5 1427,-942.5 1421,-942.5 1421,-942.5 1309,-942.5 1309,-942.5 1303,-942.5 1297,-936.5 1297,-930.5 1297,-930.5 1297,-713.5 1297,-713.5 1297,-707.5 1303,-701.5 1309,-701.5"/>
<text text-anchor="middle" x="1365" y="-927.3" font-family="Times,serif" font-size="14.00">Place</text>
<polyline fill="none" stroke="black" points="1297,-919.5 1433,-919.5 "/>
<text text-anchor="start" x="1305" y="-904.3" font-family="Times,serif" font-size="14.00">id :integer</text>
<text text-anchor="start" x="1305" y="-889.3" font-family="Times,serif" font-size="14.00">name :string</text>
<text text-anchor="start" x="1305" y="-874.3" font-family="Times,serif" font-size="14.00">role :string</text>
<text text-anchor="start" x="1305" y="-859.3" font-family="Times,serif" font-size="14.00">address :string</text>
<text text-anchor="start" x="1305" y="-844.3" font-family="Times,serif" font-size="14.00">telephone :string</text>
<text text-anchor="start" x="1305" y="-829.3" font-family="Times,serif" font-size="14.00">fax :string</text>
<text text-anchor="start" x="1305" y="-814.3" font-family="Times,serif" font-size="14.00">email :string</text>
<text text-anchor="start" x="1305" y="-799.3" font-family="Times,serif" font-size="14.00">website :string</text>
<text text-anchor="start" x="1305" y="-784.3" font-family="Times,serif" font-size="14.00">latitude :decimal</text>
<text text-anchor="start" x="1305" y="-769.3" font-family="Times,serif" font-size="14.00">longitude :decimal</text>
<text text-anchor="start" x="1305" y="-754.3" font-family="Times,serif" font-size="14.00">placeable_id :integer</text>
<text text-anchor="start" x="1305" y="-739.3" font-family="Times,serif" font-size="14.00">placeable_type :string</text>
<text text-anchor="start" x="1305" y="-724.3" font-family="Times,serif" font-size="14.00">created_at :datetime</text>
<text text-anchor="start" x="1305" y="-709.3" font-family="Times,serif" font-size="14.00">updated_at :datetime</text>
</g>
<!-- Publisher&#45;&gt;Place -->
<g id="edge8" class="edge"><title>Publisher&#45;&gt;Place</title>
<path fill="none" stroke="#76027e" d="M1361.83,-1167.68C1362.4,-1105.49 1363.17,-1021.92 1363.81,-952.635"/>
<ellipse fill="none" stroke="#76027e" cx="1361.79" cy="-1171.92" rx="4" ry="4"/>
<polygon fill="#76027e" stroke="#76027e" points="1363.81,-952.521 1368.4,-942.563 1363.85,-947.522 1363.9,-942.522 1363.9,-942.522 1363.9,-942.522 1363.85,-947.522 1359.4,-942.48 1363.81,-952.521 1363.81,-952.521"/>
</g>
<!-- User -->
<g id="node9" class="node"><title>User</title>
<path fill="none" stroke="black" d="M503,-1138.5C503,-1138.5 679,-1138.5 679,-1138.5 685,-1138.5 691,-1144.5 691,-1150.5 691,-1150.5 691,-1367.5 691,-1367.5 691,-1373.5 685,-1379.5 679,-1379.5 679,-1379.5 503,-1379.5 503,-1379.5 497,-1379.5 491,-1373.5 491,-1367.5 491,-1367.5 491,-1150.5 491,-1150.5 491,-1144.5 497,-1138.5 503,-1138.5"/>
<text text-anchor="middle" x="591" y="-1364.3" font-family="Times,serif" font-size="14.00">User</text>
<polyline fill="none" stroke="black" points="491,-1356.5 691,-1356.5 "/>
<text text-anchor="start" x="499" y="-1341.3" font-family="Times,serif" font-size="14.00">id :integer</text>
<text text-anchor="start" x="499" y="-1326.3" font-family="Times,serif" font-size="14.00">email :string</text>
<text text-anchor="start" x="499" y="-1311.3" font-family="Times,serif" font-size="14.00">encrypted_password :string</text>
<text text-anchor="start" x="499" y="-1296.3" font-family="Times,serif" font-size="14.00">reset_password_token :string</text>
<text text-anchor="start" x="499" y="-1281.3" font-family="Times,serif" font-size="14.00">reset_password_sent_at :datetime</text>
<text text-anchor="start" x="499" y="-1266.3" font-family="Times,serif" font-size="14.00">remember_created_at :datetime</text>
<text text-anchor="start" x="499" y="-1251.3" font-family="Times,serif" font-size="14.00">sign_in_count :integer</text>
<text text-anchor="start" x="499" y="-1236.3" font-family="Times,serif" font-size="14.00">current_sign_in_at :datetime</text>
<text text-anchor="start" x="499" y="-1221.3" font-family="Times,serif" font-size="14.00">last_sign_in_at :datetime</text>
<text text-anchor="start" x="499" y="-1206.3" font-family="Times,serif" font-size="14.00">current_sign_in_ip :string</text>
<text text-anchor="start" x="499" y="-1191.3" font-family="Times,serif" font-size="14.00">last_sign_in_ip :string</text>
<text text-anchor="start" x="499" y="-1176.3" font-family="Times,serif" font-size="14.00">created_at :datetime</text>
<text text-anchor="start" x="499" y="-1161.3" font-family="Times,serif" font-size="14.00">updated_at :datetime</text>
<text text-anchor="start" x="499" y="-1146.3" font-family="Times,serif" font-size="14.00">api_key :string</text>
</g>
<!-- User&#45;&gt;Profile -->
<g id="edge15" class="edge"><title>User&#45;&gt;Profile</title>
<path fill="none" stroke="#1fa6af" d="M484.484,-1179.28C450.291,-1151.63 413.426,-1119.15 383,-1086 353.22,-1053.56 324.423,-1015.97 298.858,-979.543"/>
<ellipse fill="none" stroke="#1fa6af" cx="487.718" cy="-1181.88" rx="4.00002" ry="4.00002"/>
<ellipse fill="#1fa6af" stroke="#1fa6af" cx="296.412" cy="-976.037" rx="4.00002" ry="4.00002"/>
</g>
<!-- User&#45;&gt;Follow -->
<g id="edge20" class="edge"><title>User&#45;&gt;Follow</title>
<path fill="none" stroke="#77d7eb" d="M613.045,-1130.32C613.398,-1126.85 613.718,-1123.4 614,-1120 619.917,-1048.5 612.668,-967.278 604.784,-907.865"/>
<ellipse fill="none" stroke="#77d7eb" cx="612.592" cy="-1134.5" rx="4" ry="4"/>
<polygon fill="#77d7eb" stroke="#77d7eb" points="604.76,-907.688 607.87,-897.172 604.085,-902.733 603.411,-897.779 603.411,-897.779 603.411,-897.779 604.085,-902.733 598.952,-898.386 604.76,-907.688 604.76,-907.688"/>
</g>
<!-- User&#45;&gt;Follow -->
<g id="edge21" class="edge"><title>User&#45;&gt;Follow</title>
<path fill="none" stroke="#ab309e" d="M553.592,-1130.28C553.004,-1126.83 552.471,-1123.4 552,-1120 542.096,-1048.54 554.378,-967.313 567.71,-907.89"/>
<ellipse fill="none" stroke="#ab309e" cx="554.344" cy="-1134.44" rx="4.00001" ry="4.00001"/>
<polygon fill="#ab309e" stroke="#ab309e" points="567.788,-907.547 574.415,-898.81 568.909,-902.674 570.03,-897.801 570.03,-897.801 570.03,-897.801 568.909,-902.674 565.644,-896.793 567.788,-907.547 567.788,-907.547"/>
<text text-anchor="middle" x="581" y="-1108.3" font-family="Times,serif" font-size="14.00">followings</text>
</g>
<!-- User&#45;&gt;Book -->
<g id="edge18" class="edge"><title>User&#45;&gt;Book</title>
<path fill="none" stroke="#744ef5" d="M700.519,-1221.26C768.368,-1193.54 852.798,-1149.34 908,-1086 910.84,-1082.74 913.602,-1079.39 916.287,-1075.97"/>
<polygon fill="#744ef5" stroke="#744ef5" points="700.339,-1221.33 689.382,-1220.88 695.7,-1223.19 691.06,-1225.06 691.06,-1225.06 691.06,-1225.06 695.7,-1223.19 692.739,-1229.23 700.339,-1221.33 700.339,-1221.33"/>
<polygon fill="#744ef5" stroke="#744ef5" points="916.4,-1075.82 926.011,-1070.54 919.408,-1071.82 922.417,-1067.83 922.417,-1067.83 922.417,-1067.83 919.408,-1071.82 918.823,-1065.12 916.4,-1075.82 916.4,-1075.82"/>
</g>
<!-- Shelf -->
<g id="node12" class="node"><title>Shelf</title>
<path fill="none" stroke="black" d="M164,-317C164,-317 276,-317 276,-317 282,-317 288,-323 288,-329 288,-329 288,-471 288,-471 288,-477 282,-483 276,-483 276,-483 164,-483 164,-483 158,-483 152,-477 152,-471 152,-471 152,-329 152,-329 152,-323 158,-317 164,-317"/>
<text text-anchor="middle" x="220" y="-467.8" font-family="Times,serif" font-size="14.00">Shelf</text>
<polyline fill="none" stroke="black" points="152,-460 288,-460 "/>
<text text-anchor="start" x="160" y="-444.8" font-family="Times,serif" font-size="14.00">id :integer</text>
<text text-anchor="start" x="160" y="-429.8" font-family="Times,serif" font-size="14.00">name :string</text>
<text text-anchor="start" x="160" y="-414.8" font-family="Times,serif" font-size="14.00">privacy :integer</text>
<text text-anchor="start" x="160" y="-399.8" font-family="Times,serif" font-size="14.00">built_in :boolean</text>
<text text-anchor="start" x="160" y="-384.8" font-family="Times,serif" font-size="14.00">default_name :integer</text>
<text text-anchor="start" x="160" y="-369.8" font-family="Times,serif" font-size="14.00">active :boolean</text>
<text text-anchor="start" x="160" y="-354.8" font-family="Times,serif" font-size="14.00">user_id :integer</text>
<text text-anchor="start" x="160" y="-339.8" font-family="Times,serif" font-size="14.00">created_at :datetime</text>
<text text-anchor="start" x="160" y="-324.8" font-family="Times,serif" font-size="14.00">updated_at :datetime</text>
</g>
<!-- User&#45;&gt;Shelf -->
<g id="edge16" class="edge"><title>User&#45;&gt;Shelf</title>
<path fill="none" stroke="#06db03" d="M484.368,-1193.77C446.392,-1165.48 407.103,-1128.86 383,-1086 266.747,-879.3 381.268,-782.887 306,-558 298.577,-535.823 288.088,-513.118 276.976,-492.112"/>
<ellipse fill="none" stroke="#06db03" cx="487.719" cy="-1196.23" rx="4.00002" ry="4.00002"/>
<polygon fill="#06db03" stroke="#06db03" points="276.927,-492.022 276.143,-481.084 274.555,-487.621 272.182,-483.22 272.182,-483.22 272.182,-483.22 274.555,-487.621 268.221,-485.355 276.927,-492.022 276.927,-492.022"/>
</g>
<!-- Bookshelf -->
<g id="node13" class="node"><title>Bookshelf</title>
<path fill="none" stroke="black" d="M64.5,-68C64.5,-68 171.5,-68 171.5,-68 177.5,-68 183.5,-74 183.5,-80 183.5,-80 183.5,-162 183.5,-162 183.5,-168 177.5,-174 171.5,-174 171.5,-174 64.5,-174 64.5,-174 58.5,-174 52.5,-168 52.5,-162 52.5,-162 52.5,-80 52.5,-80 52.5,-74 58.5,-68 64.5,-68"/>
<text text-anchor="middle" x="118" y="-158.8" font-family="Times,serif" font-size="14.00">Bookshelf</text>
<polyline fill="none" stroke="black" points="52.5,-151 183.5,-151 "/>
<text text-anchor="start" x="60.5" y="-135.8" font-family="Times,serif" font-size="14.00">id :integer</text>
<text text-anchor="start" x="60.5" y="-120.8" font-family="Times,serif" font-size="14.00">book_id :integer</text>
<text text-anchor="start" x="60.5" y="-105.8" font-family="Times,serif" font-size="14.00">shelf_id :integer</text>
<text text-anchor="start" x="60.5" y="-90.8" font-family="Times,serif" font-size="14.00">created_at :datetime</text>
<text text-anchor="start" x="60.5" y="-75.8" font-family="Times,serif" font-size="14.00">updated_at :datetime</text>
</g>
<!-- User&#45;&gt;Bookshelf -->
<g id="edge17" class="edge"><title>User&#45;&gt;Bookshelf</title>
<path fill="none" stroke="#4a0c7f" d="M480.726,-1254.71C363.179,-1244.59 182.228,-1208.57 95,-1086 -7.99666,-941.27 75.5782,-374.02 107.175,-184.238"/>
<polygon fill="#4a0c7f" stroke="#4a0c7f" points="480.872,-1254.72 490.475,-1260.01 485.855,-1255.12 490.839,-1255.53 490.839,-1255.53 490.839,-1255.53 485.855,-1255.12 491.203,-1251.04 480.872,-1254.72 480.872,-1254.72"/>
<polygon fill="#4a0c7f" stroke="#4a0c7f" points="107.213,-184.013 113.303,-174.894 108.039,-179.082 108.865,-174.151 108.865,-174.151 108.865,-174.151 108.039,-179.082 104.427,-173.407 107.213,-184.013 107.213,-184.013"/>
</g>
<!-- Author -->
<g id="node15" class="node"><title>Author</title>
<path fill="none" stroke="black" d="M965,-294.5C965,-294.5 1105,-294.5 1105,-294.5 1111,-294.5 1117,-300.5 1117,-306.5 1117,-306.5 1117,-493.5 1117,-493.5 1117,-499.5 1111,-505.5 1105,-505.5 1105,-505.5 965,-505.5 965,-505.5 959,-505.5 953,-499.5 953,-493.5 953,-493.5 953,-306.5 953,-306.5 953,-300.5 959,-294.5 965,-294.5"/>
<text text-anchor="middle" x="1035" y="-490.3" font-family="Times,serif" font-size="14.00">Author</text>
<polyline fill="none" stroke="black" points="953,-482.5 1117,-482.5 "/>
<text text-anchor="start" x="961" y="-467.3" font-family="Times,serif" font-size="14.00">id :integer</text>
<text text-anchor="start" x="961" y="-452.3" font-family="Times,serif" font-size="14.00">firstname :string</text>
<text text-anchor="start" x="961" y="-437.3" font-family="Times,serif" font-size="14.00">lastname :string</text>
<text text-anchor="start" x="961" y="-422.3" font-family="Times,serif" font-size="14.00">extra_info :string</text>
<text text-anchor="start" x="961" y="-407.3" font-family="Times,serif" font-size="14.00">biography :text</text>
<text text-anchor="start" x="961" y="-392.3" font-family="Times,serif" font-size="14.00">image :string</text>
<text text-anchor="start" x="961" y="-377.3" font-family="Times,serif" font-size="14.00">created_at :datetime</text>
<text text-anchor="start" x="961" y="-362.3" font-family="Times,serif" font-size="14.00">updated_at :datetime</text>
<text text-anchor="start" x="961" y="-347.3" font-family="Times,serif" font-size="14.00">biblionet_id :integer</text>
<text text-anchor="start" x="961" y="-332.3" font-family="Times,serif" font-size="14.00">impressions_count :integer</text>
<text text-anchor="start" x="961" y="-317.3" font-family="Times,serif" font-size="14.00">slug :string</text>
<text text-anchor="start" x="961" y="-302.3" font-family="Times,serif" font-size="14.00">tsearch_vector :tsvector</text>
</g>
<!-- User&#45;&gt;Author -->
<g id="edge19" class="edge"><title>User&#45;&gt;Author</title>
<path fill="none" stroke="#f1d0ee" d="M700.044,-1209.97C750.956,-1181.58 807.043,-1140.42 838,-1086 896.164,-983.748 826.77,-664.84 876,-558 891.73,-523.863 918.329,-493.076 945.317,-467.994"/>
<polygon fill="#f1d0ee" stroke="#f1d0ee" points="700.041,-1209.97 689.108,-1210.82 695.653,-1212.37 691.266,-1214.77 691.266,-1214.77 691.266,-1214.77 695.653,-1212.37 693.425,-1218.71 700.041,-1209.97 700.041,-1209.97"/>
<polygon fill="#f1d0ee" stroke="#f1d0ee" points="945.531,-467.8 955.957,-464.403 949.231,-464.436 952.93,-461.073 952.93,-461.073 952.93,-461.073 949.231,-464.436 949.903,-457.743 945.531,-467.8 945.531,-467.8"/>
<text text-anchor="middle" x="895" y="-818.3" font-family="Times,serif" font-size="14.00">writers</text>
</g>
<!-- Royce::Connector -->
<g id="node17" class="node"><title>Royce::Connector</title>
<ellipse fill="none" stroke="black" cx="755" cy="-822" rx="74.6146" ry="18"/>
<text text-anchor="middle" x="755" y="-818.3" font-family="Times,serif" font-size="14.00">Royce::Connector</text>
</g>
<!-- User&#45;&gt;Royce::Connector -->
<g id="edge13" class="edge"><title>User&#45;&gt;Royce::Connector</title>
<path fill="none" stroke="#49db2e" d="M652.356,-1130.75C658.926,-1115.78 665.287,-1100.63 671,-1086 704.052,-1001.35 734.219,-897.835 747.647,-849.825"/>
<ellipse fill="none" stroke="#49db2e" cx="650.734" cy="-1134.42" rx="4.00002" ry="4.00002"/>
<polygon fill="#49db2e" stroke="#49db2e" points="747.649,-849.817 754.663,-841.387 748.988,-845 750.327,-840.182 750.327,-840.182 750.327,-840.182 748.988,-845 745.991,-838.977 747.649,-849.817 747.649,-849.817"/>
<text text-anchor="middle" x="706.5" y="-1108.3" font-family="Times,serif" font-size="14.00">role_connectors</text>
</g>
<!-- Royce::Role -->
<g id="node18" class="node"><title>Royce::Role</title>
<ellipse fill="none" stroke="black" cx="447" cy="-822" rx="54.3924" ry="18"/>
<text text-anchor="middle" x="447" y="-818.3" font-family="Times,serif" font-size="14.00">Royce::Role</text>
</g>
<!-- User&#45;&gt;Royce::Role -->
<g id="edge14" class="edge"><title>User&#45;&gt;Royce::Role</title>
<path fill="none" stroke="#201ea2" d="M522.452,-1128.87C521.258,-1125.9 520.105,-1122.94 519,-1120 482.866,-1023.82 460.199,-903.193 451.301,-850.149"/>
<polygon fill="#201ea2" stroke="#201ea2" points="522.563,-1129.14 522.244,-1140.1 524.481,-1133.75 526.399,-1138.37 526.399,-1138.37 526.399,-1138.37 524.481,-1133.75 530.555,-1136.64 522.563,-1129.14 522.563,-1129.14"/>
<polygon fill="#201ea2" stroke="#201ea2" points="451.284,-850.045 454.099,-839.446 450.471,-845.111 449.659,-840.178 449.659,-840.178 449.659,-840.178 450.471,-845.111 445.218,-840.909 451.284,-850.045 451.284,-850.045"/>
<text text-anchor="middle" x="532.5" y="-1108.3" font-family="Times,serif" font-size="14.00">roles</text>
</g>
<!-- Book&#45;&gt;Award -->
<g id="edge25" class="edge"><title>Book&#45;&gt;Award</title>
<path fill="none" stroke="#7704c0" d="M1094.36,-602.112C1105.76,-570.126 1116.69,-537.392 1126,-506 1157.06,-401.275 1182.11,-277.389 1196.54,-199.244"/>
<ellipse fill="none" stroke="#7704c0" cx="1092.96" cy="-606.024" rx="4.00001" ry="4.00001"/>
<polygon fill="#7704c0" stroke="#7704c0" points="1196.61,-198.837 1202.84,-189.812 1197.51,-193.919 1198.41,-189.001 1198.41,-189.001 1198.41,-189.001 1197.51,-193.919 1193.99,-188.189 1196.61,-198.837 1196.61,-198.837"/>
</g>
<!-- Book&#45;&gt;Contribution -->
<g id="edge23" class="edge"><title>Book&#45;&gt;Contribution</title>
<path fill="none" stroke="#49d693" d="M946.667,-550.662C917.64,-420.6 885.169,-275.101 866.501,-191.458"/>
<ellipse fill="none" stroke="#49d693" cx="947.596" cy="-554.826" rx="4.00001" ry="4.00001"/>
<polygon fill="#49d693" stroke="#49d693" points="866.473,-191.329 868.686,-180.589 865.384,-186.449 864.294,-181.569 864.294,-181.569 864.294,-181.569 865.384,-186.449 859.902,-182.549 866.473,-191.329 866.473,-191.329"/>
</g>
<!-- Book&#45;&gt;Impression -->
<g id="edge30" class="edge"><title>Book&#45;&gt;Impression</title>
<path fill="none" stroke="#35d7e0" d="M1095.41,-634.872C1109.3,-608.667 1124.03,-582.375 1139,-558 1210.02,-442.328 1303.24,-318.583 1371.09,-232.588"/>
<ellipse fill="none" stroke="#35d7e0" cx="1093.39" cy="-638.72" rx="4.00002" ry="4.00002"/>
<polygon fill="#35d7e0" stroke="#35d7e0" points="1371.17,-232.491 1380.9,-227.437 1374.27,-228.569 1377.37,-224.646 1377.37,-224.646 1377.37,-224.646 1374.27,-228.569 1373.84,-221.855 1371.17,-232.491 1371.17,-232.491"/>
</g>
<!-- Book&#45;&gt;Shelf -->
<g id="edge29" class="edge"><title>Book&#45;&gt;Shelf</title>
<path fill="none" stroke="#d8e66b" d="M914.426,-563.007C912.332,-561.285 910.19,-559.616 908,-558 881.305,-538.309 642.501,-546.634 610,-540 497.995,-517.138 374.64,-469.037 297.263,-435.879"/>
<polygon fill="#d8e66b" stroke="#d8e66b" points="914.756,-563.297 919.302,-573.276 918.514,-566.595 922.271,-569.894 922.271,-569.894 922.271,-569.894 918.514,-566.595 925.24,-566.512 914.756,-563.297 914.756,-563.297"/>
<polygon fill="#d8e66b" stroke="#d8e66b" points="297.242,-435.87 289.839,-427.779 292.65,-433.891 288.058,-431.912 288.058,-431.912 288.058,-431.912 292.65,-433.891 286.277,-436.044 297.242,-435.87 297.242,-435.87"/>
</g>
<!-- Book&#45;&gt;Bookshelf -->
<g id="edge28" class="edge"><title>Book&#45;&gt;Bookshelf</title>
<path fill="none" stroke="#537fe7" d="M917.101,-557.153C711.296,-317.296 350.181,-189.36 193.737,-142.733"/>
<ellipse fill="none" stroke="#537fe7" cx="919.759" cy="-560.284" rx="4.00002" ry="4.00002"/>
<polygon fill="#537fe7" stroke="#537fe7" points="193.322,-142.611 185.006,-135.463 188.527,-141.195 183.732,-139.779 183.732,-139.779 183.732,-139.779 188.527,-141.195 182.457,-144.095 193.322,-142.611 193.322,-142.611"/>
</g>
<!-- Book&#45;&gt;Author -->
<g id="edge24" class="edge"><title>Book&#45;&gt;Author</title>
<path fill="none" stroke="#74b271" d="M952.466,-548.52C953.865,-540.225 955.693,-532.035 958,-524 958.859,-521.009 959.814,-518.021 960.855,-515.041"/>
<polygon fill="#74b271" stroke="#74b271" points="952.425,-548.793 946.516,-558.031 951.697,-553.74 950.968,-558.686 950.968,-558.686 950.968,-558.686 951.697,-553.74 955.42,-559.342 952.425,-548.793 952.425,-548.793"/>
<polygon fill="#74b271" stroke="#74b271" points="960.903,-514.913 968.66,-507.162 962.678,-510.239 964.453,-505.564 964.453,-505.564 964.453,-505.564 962.678,-510.239 960.246,-503.967 960.903,-514.913 960.903,-514.913"/>
</g>
<!-- Book&#45;&gt;Author -->
<g id="edge26" class="edge"><title>Book&#45;&gt;Author</title>
<path fill="none" stroke="#b8b02d" d="M973.584,-548.948C974.736,-540.515 976.196,-532.182 978,-524 978.629,-521.145 979.332,-518.277 980.099,-515.405"/>
<polygon fill="#b8b02d" stroke="#b8b02d" points="973.582,-548.964 967.903,-558.345 972.976,-553.927 972.37,-558.891 972.37,-558.891 972.37,-558.891 972.976,-553.927 976.836,-559.436 973.582,-548.964 973.582,-548.964"/>
<polygon fill="#b8b02d" stroke="#b8b02d" points="980.148,-515.235 987.264,-506.891 981.546,-510.435 982.943,-505.634 982.943,-505.634 982.943,-505.634 981.546,-510.435 978.622,-504.376 980.148,-515.235 980.148,-515.235"/>
<text text-anchor="middle" x="997" y="-528.3" font-family="Times,serif" font-size="14.00">writers</text>
</g>
<!-- Book&#45;&gt;Author -->
<g id="edge27" class="edge"><title>Book&#45;&gt;Author</title>
<path fill="none" stroke="#e0a72c" d="M1025.16,-548.582C1025.9,-537.493 1026.62,-526.659 1027.32,-516.221"/>
<polygon fill="#e0a72c" stroke="#e0a72c" points="1025.14,-548.909 1019.98,-558.587 1024.81,-553.898 1024.47,-558.886 1024.47,-558.886 1024.47,-558.886 1024.81,-553.898 1028.96,-559.186 1025.14,-548.909 1025.14,-548.909"/>
<polygon fill="#e0a72c" stroke="#e0a72c" points="1027.34,-515.898 1032.5,-506.219 1027.67,-510.909 1028.01,-505.92 1028.01,-505.92 1028.01,-505.92 1027.67,-510.909 1023.52,-505.62 1027.34,-515.898 1027.34,-515.898"/>
<text text-anchor="middle" x="1059" y="-528.3" font-family="Times,serif" font-size="14.00">contributors</text>
</g>
<!-- Shelf&#45;&gt;Bookshelf -->
<g id="edge33" class="edge"><title>Shelf&#45;&gt;Bookshelf</title>
<path fill="none" stroke="#89061c" d="M186.857,-308.994C171.806,-268.12 154.38,-220.796 140.824,-183.983"/>
<ellipse fill="none" stroke="#89061c" cx="188.291" cy="-312.887" rx="4.00001" ry="4.00001"/>
<polygon fill="#89061c" stroke="#89061c" points="140.743,-183.762 141.51,-172.823 139.015,-179.07 137.287,-174.378 137.287,-174.378 137.287,-174.378 139.015,-179.07 133.064,-175.933 140.743,-183.762 140.743,-183.762"/>
</g>
<!-- Prize -->
<g id="node14" class="node"><title>Prize</title>
<path fill="none" stroke="black" d="M1159.5,-776.5C1159.5,-776.5 1266.5,-776.5 1266.5,-776.5 1272.5,-776.5 1278.5,-782.5 1278.5,-788.5 1278.5,-788.5 1278.5,-855.5 1278.5,-855.5 1278.5,-861.5 1272.5,-867.5 1266.5,-867.5 1266.5,-867.5 1159.5,-867.5 1159.5,-867.5 1153.5,-867.5 1147.5,-861.5 1147.5,-855.5 1147.5,-855.5 1147.5,-788.5 1147.5,-788.5 1147.5,-782.5 1153.5,-776.5 1159.5,-776.5"/>
<text text-anchor="middle" x="1213" y="-852.3" font-family="Times,serif" font-size="14.00">Prize</text>
<polyline fill="none" stroke="black" points="1147.5,-844.5 1278.5,-844.5 "/>
<text text-anchor="start" x="1155.5" y="-829.3" font-family="Times,serif" font-size="14.00">id :integer</text>
<text text-anchor="start" x="1155.5" y="-814.3" font-family="Times,serif" font-size="14.00">name :string</text>
<text text-anchor="start" x="1155.5" y="-799.3" font-family="Times,serif" font-size="14.00">created_at :datetime</text>
<text text-anchor="start" x="1155.5" y="-784.3" font-family="Times,serif" font-size="14.00">updated_at :datetime</text>
</g>
<!-- Prize&#45;&gt;Award -->
<g id="edge36" class="edge"><title>Prize&#45;&gt;Award</title>
<path fill="none" stroke="#3e0f7a" d="M1212.77,-768.144C1212.25,-645.763 1210.95,-342.483 1210.33,-199.255"/>
<ellipse fill="none" stroke="#3e0f7a" cx="1212.79" cy="-772.478" rx="4" ry="4"/>
<polygon fill="#3e0f7a" stroke="#3e0f7a" points="1210.33,-199.224 1214.79,-189.204 1210.31,-194.224 1210.29,-189.224 1210.29,-189.224 1210.29,-189.224 1210.31,-194.224 1205.79,-189.243 1210.33,-199.224 1210.33,-199.224"/>
</g>
<!-- Prize&#45;&gt;Author -->
<g id="edge37" class="edge"><title>Prize&#45;&gt;Author</title>
<path fill="none" stroke="#b15983" d="M1205.2,-766.556C1194.88,-705.097 1173.1,-603.345 1133,-524 1129.9,-517.86 1126.46,-511.738 1122.77,-505.688"/>
<polygon fill="#b15983" stroke="#b15983" points="1205.21,-766.567 1202.38,-777.163 1206.01,-771.501 1206.82,-776.435 1206.82,-776.435 1206.82,-776.435 1206.01,-771.501 1211.26,-775.707 1205.21,-766.567 1205.21,-766.567"/>
<polygon fill="#b15983" stroke="#b15983" points="1122.55,-505.34 1121.02,-494.482 1119.88,-501.112 1117.21,-496.884 1117.21,-496.884 1117.21,-496.884 1119.88,-501.112 1113.41,-499.287 1122.55,-505.34 1122.55,-505.34"/>
</g>
<!-- Author&#45;&gt;Award -->
<g id="edge40" class="edge"><title>Author&#45;&gt;Award</title>
<path fill="none" stroke="#04774b" d="M1121.97,-298.053C1127.25,-290.735 1132.32,-283.343 1137,-276 1152.44,-251.779 1166.67,-223.782 1178.38,-198.357"/>
<ellipse fill="none" stroke="#04774b" cx="1119.42" cy="-301.524" rx="4.00002" ry="4.00002"/>
<polygon fill="#04774b" stroke="#04774b" points="1178.44,-198.221 1186.68,-190.98 1180.51,-193.669 1182.58,-189.117 1182.58,-189.117 1182.58,-189.117 1180.51,-193.669 1178.48,-187.255 1178.44,-198.221 1178.44,-198.221"/>
</g>
<!-- Author&#45;&gt;Contribution -->
<g id="edge39" class="edge"><title>Author&#45;&gt;Contribution</title>
<path fill="none" stroke="#f6bb60" d="M955.675,-287.484C945.219,-272.293 934.755,-256.829 925,-242 914.118,-225.458 902.724,-207.387 892.228,-190.406"/>
<ellipse fill="none" stroke="#f6bb60" cx="958.203" cy="-291.149" rx="4.00002" ry="4.00002"/>
<polygon fill="#f6bb60" stroke="#f6bb60" points="892.072,-190.154 890.66,-179.279 889.45,-185.896 886.828,-181.639 886.828,-181.639 886.828,-181.639 889.45,-185.896 882.997,-183.999 892.072,-190.154 892.072,-190.154"/>
</g>
<!-- Author&#45;&gt;Impression -->
<g id="edge41" class="edge"><title>Author&#45;&gt;Impression</title>
<path fill="none" stroke="#713845" d="M1124.07,-345.609C1173.14,-315.779 1234.9,-277.553 1289,-242 1315.22,-224.768 1343.28,-205.54 1368.97,-187.613"/>
<ellipse fill="none" stroke="#713845" cx="1120.65" cy="-347.686" rx="4.00002" ry="4.00002"/>
<polygon fill="#713845" stroke="#713845" points="1369.02,-187.573 1379.8,-185.529 1373.12,-184.707 1377.22,-181.842 1377.22,-181.842 1377.22,-181.842 1373.12,-184.707 1374.64,-178.154 1369.02,-187.573 1369.02,-187.573"/>
</g>
<!-- PgSearch::Document -->
<g id="node19" class="node"><title>PgSearch::Document</title>
<ellipse fill="none" stroke="black" cx="1020" cy="-121" rx="85.19" ry="18"/>
<text text-anchor="middle" x="1020" y="-117.3" font-family="Times,serif" font-size="14.00">PgSearch::Document</text>
</g>
<!-- Author&#45;&gt;PgSearch::Document -->
<g id="edge42" class="edge"><title>Author&#45;&gt;PgSearch::Document</title>
<path fill="none" stroke="#495ded" d="M1021.69,-286.267C1021.43,-282.808 1021.2,-279.379 1021,-276 1018.29,-230.819 1018.73,-178.049 1019.33,-147.485"/>
<ellipse fill="none" stroke="#495ded" cx="1022.01" cy="-290.399" rx="4" ry="4"/>
<ellipse fill="#495ded" stroke="#495ded" cx="1019.43" cy="-143.11" rx="4" ry="4"/>
<text text-anchor="middle" x="1079" y="-264.3" font-family="Times,serif" font-size="14.00">pg_search_document</text>
</g>
<!-- ActiveRecord::Base -->
<g id="node16" class="node"><title>ActiveRecord::Base</title>
<ellipse fill="none" stroke="black" cx="1116" cy="-1457" rx="81.3646" ry="18"/>
<text text-anchor="middle" x="1116" y="-1453.3" font-family="Times,serif" font-size="14.00">ActiveRecord::Base</text>
</g>
<!-- ActiveRecord::Base&#45;&gt;Profile -->
<g id="edge1" class="edge"><title>ActiveRecord::Base&#45;&gt;Profile</title>
<path fill="none" stroke="black" d="M1086.16,-1440.25C1068.82,-1431.94 1046.26,-1422.56 1025,-1418 988.32,-1410.14 379.348,-1423.36 350,-1400 223.833,-1299.56 196.068,-1107.51 193.649,-972.653"/>
</g>
<!-- ActiveRecord::Base&#45;&gt;Award -->
<g id="edge2" class="edge"><title>ActiveRecord::Base&#45;&gt;Award</title>
<path fill="none" stroke="black" d="M1186.31,-1447.9C1272.71,-1436.64 1412.71,-1413.77 1452,-1380 1495.44,-1342.67 1499,-1317.28 1499,-1260 1499,-1260 1499,-1260 1499,-399 1499,-368.812 1365.87,-252.002 1280.33,-180.059"/>
</g>
<!-- ActiveRecord::Base&#45;&gt;Follow -->
<g id="edge3" class="edge"><title>ActiveRecord::Base&#45;&gt;Follow</title>
<path fill="none" stroke="black" d="M1082.83,-1440.46C1065.81,-1432.92 1044.59,-1424.19 1025,-1418 949.933,-1394.29 911.032,-1432.08 852,-1380 754.388,-1293.88 851.726,-1189.99 754,-1104 725.662,-1079.07 698.759,-1111.58 671,-1086 618.88,-1037.97 600.308,-957.169 593.901,-897.774"/>
</g>
<!-- ActiveRecord::Base&#45;&gt;Category -->
<g id="edge6" class="edge"><title>ActiveRecord::Base&#45;&gt;Category</title>
<path fill="none" stroke="black" d="M1101.25,-1439.29C1084.09,-1419.85 1054.39,-1386.19 1025.31,-1353.26"/>
</g>
<!-- ActiveRecord::Base&#45;&gt;Contribution -->
<g id="edge7" class="edge"><title>ActiveRecord::Base&#45;&gt;Contribution</title>
<path fill="none" stroke="black" d="M1085.26,-1440.21C1068.01,-1432.11 1045.82,-1422.94 1025,-1418 907.299,-1390.1 577.712,-1453.97 482,-1380 372.904,-1295.69 405.293,-1222.06 383,-1086 345.056,-854.421 289.376,-773.181 383,-558 465.848,-367.587 677.378,-222.712 785.387,-158.449"/>
</g>
<!-- ActiveRecord::Base&#45;&gt;Publisher -->
<g id="edge11" class="edge"><title>ActiveRecord::Base&#45;&gt;Publisher</title>
<path fill="none" stroke="black" d="M1170.99,-1443.73C1200.73,-1435.1 1236.83,-1421.23 1264,-1400 1284.15,-1384.25 1301.76,-1363.16 1316.25,-1342.14"/>
</g>
<!-- ActiveRecord::Base&#45;&gt;Impression -->
<g id="edge12" class="edge"><title>ActiveRecord::Base&#45;&gt;Impression</title>
<path fill="none" stroke="black" d="M1189.32,-1449.11C1282.86,-1439.22 1437.41,-1417.89 1480,-1380 1524.11,-1340.75 1537,-1319.04 1537,-1260 1537,-1260 1537,-1260 1537,-399 1537,-345.93 1522.56,-289.557 1506.22,-241.617"/>
</g>
<!-- ActiveRecord::Base&#45;&gt;Impression -->
<g id="edge44" class="edge"><title>ActiveRecord::Base&#45;&gt;Impression</title>
<path fill="none" stroke="black" d="M1191.28,-1450.14C1289.51,-1440.75 1453.87,-1419.26 1498,-1380 1542.11,-1340.75 1555,-1319.04 1555,-1260 1555,-1260 1555,-1260 1555,-399 1555,-345.93 1540.56,-289.557 1522.96,-241.617"/>
</g>
<!-- ActiveRecord::Base&#45;&gt;User -->
<g id="edge22" class="edge"><title>ActiveRecord::Base&#45;&gt;User</title>
<path fill="none" stroke="black" d="M1084.81,-1440.16C1067.61,-1432.15 1045.61,-1423.07 1025,-1418 935.76,-1396.03 906.27,-1428.82 819,-1400 774.341,-1385.25 729.343,-1360.27 691.259,-1335.46"/>
</g>
<!-- ActiveRecord::Base&#45;&gt;Book -->
<g id="edge31" class="edge"><title>ActiveRecord::Base&#45;&gt;Book</title>
<path fill="none" stroke="black" d="M1116.28,-1438.96C1116.8,-1391.12 1116.39,-1251.67 1097,-1138 1094.06,-1120.76 1090.53,-1103.12 1086.58,-1085.42"/>
</g>
<!-- ActiveRecord::Base&#45;&gt;Place -->
<g id="edge32" class="edge"><title>ActiveRecord::Base&#45;&gt;Place</title>
<path fill="none" stroke="black" d="M1146.6,-1440.17C1168.95,-1427.04 1198.17,-1406.27 1215,-1380 1274.5,-1287.13 1240.61,-1244.31 1270,-1138 1276.48,-1114.56 1279.76,-1109.21 1287,-1086 1301.56,-1039.28 1317,-987.697 1330.26,-942.68"/>
</g>
<!-- ActiveRecord::Base&#45;&gt;Shelf -->
<g id="edge34" class="edge"><title>ActiveRecord::Base&#45;&gt;Shelf</title>
<path fill="none" stroke="black" d="M1086.16,-1440.25C1068.82,-1431.94 1046.26,-1422.55 1025,-1418 936.14,-1398.96 279.017,-1436.7 208,-1380 63.9085,-1264.96 34.1706,-732.062 95,-558 106.782,-524.287 129.168,-492.402 151.778,-466.285"/>
</g>
<!-- ActiveRecord::Base&#45;&gt;Bookshelf -->
<g id="edge35" class="edge"><title>ActiveRecord::Base&#45;&gt;Bookshelf</title>
<path fill="none" stroke="black" d="M1086.17,-1440.22C1068.83,-1431.91 1046.27,-1422.52 1025,-1418 923.844,-1396.48 185.303,-1430.41 95,-1380 35.6043,-1346.84 0,-1328.02 0,-1260 0,-1260 0,-1260 0,-399 0,-315.234 46.2379,-227.798 80.826,-174.109"/>
</g>
<!-- ActiveRecord::Base&#45;&gt;Prize -->
<g id="edge38" class="edge"><title>ActiveRecord::Base&#45;&gt;Prize</title>
<path fill="none" stroke="black" d="M1137.15,-1439.43C1148.39,-1429.33 1161.24,-1415.43 1168,-1400 1248.57,-1216.18 1230.81,-967.926 1219.11,-867.706"/>
</g>
<!-- ActiveRecord::Base&#45;&gt;Author -->
<g id="edge43" class="edge"><title>ActiveRecord::Base&#45;&gt;Author</title>
<path fill="none" stroke="black" d="M1122.51,-1439C1126.28,-1427.57 1130.25,-1412.09 1130,-1398 1123.33,-1024.49 1128.51,-930.482 1100,-558 1098.84,-542.829 1100.33,-538.585 1096,-524 1094.2,-517.945 1092.12,-511.826 1089.84,-505.72"/>
</g>
</g>
</svg>
